module gitlab.com/oldmanswar/gotick

go 1.20

require github.com/rs/zerolog v1.29.1

require (
	github.com/mattn/go-colorable v0.1.12 // indirect
	github.com/mattn/go-isatty v0.0.14 // indirect
	github.com/mattn/go-sqlite3 v1.14.17
	golang.org/x/sys v0.0.0-20210927094055-39ccf1dd6fa6 // indirect
)
